<svg id="if_star_1608851" xmlns="http://www.w3.org/2000/svg" viewBox="0 0 15 14.306">
  <path id="Shape" d="M15,5.544a.652.652,0,0,1-.234.433L11.493,9.168l.775,4.507a1.363,1.363,0,0,1,.009.18.531.531,0,0,1-.095.32.318.318,0,0,1-.275.131.729.729,0,0,1-.361-.108L7.5,12.07,3.453,14.2a.766.766,0,0,1-.361.108.328.328,0,0,1-.284-.131.531.531,0,0,1-.095-.32,1.464,1.464,0,0,1,.018-.18l.775-4.507L.225,5.977A.687.687,0,0,1,0,5.544q0-.334.5-.415L5.03,4.471,7.058.37Q7.23,0,7.5,0t.442.37l2.028,4.1,4.525.658Q15,5.21,15,5.544Z" fill="#dbdfe4"/>
</svg>
